[
    {
        "include": "~/.config/waybar/modules.json",
        "layer": "top",
        "output": "DP-3",
        "position": "top",
        "mod": "dock",
        "exclusive": true,
        "gtk-layer-shell": true,
        "margin-bottom": -1,
        "passthrough": false,
        "height": 40,
        "modules-left": [
            "custom/os_button",
            "hyprland/workspaces",
            "wlr/taskbar"
        ],
        "modules-center": [
        ],
        "modules-right": [
            "cpu",
            "temperature",
            "memory",
            "disk",
            "tray",
            "pulseaudio",
            "network",
            //"battery",
            //"hyprland/language",
            "custom/keyboard-battery",
            "clock"
        ],
    },

    {
        "include": "~/.config/waybar/modules.json",
        "layer": "top",
        "output": "DP-2",
        "position": "top",
        "mod": "dock",
        "exclusive": true,
        "gtk-layer-shell": true,
        "margin-bottom": -1,
        "passthrough": false,
        "height": 16,
        "modules-left": [
            "custom/os_button",
            "wlr/taskbar"
        ],
        "modules-center": [
            "hyprland/workspaces",
        ],
        "modules-right": [
            "tray",
            "pulseaudio",
            "network",
            "clock"
        ],
    }
]

